Personal website of Siyu Zou - Example analysis
…
earn <- readr::read_csv('https://raw.githubusercontent.com/rfordatascience/tidytuesday/master/data/2021/2021-02-23/earn.csv')

Rows: 4224 Columns: 8
── Column specification ────────────────────────────────────────────────────────
Delimiter: ","
chr (4): sex, race, ethnic_origin, age
dbl (4): year, quarter, n_persons, median_weekly_earn

ℹ Use `spec()` to retrieve the full column specification for this data.
ℹ Specify the column types or set `show_col_types = FALSE` to quiet this message.

as_tibble(employed)

# A tibble: 8,184 × 7
   industry                major_occupat…¹ minor…² race_…³ indus…⁴ emplo…⁵  year
   <chr>                   <chr>           <chr>   <chr>     <dbl>   <dbl> <dbl>
 1 Agriculture and related Management, pr… Manage… TOTAL   2349000  961000  2020
 2 Agriculture and related Management, pr… Profes… TOTAL   2349000   58000  2020
 3 Agriculture and related Service occupa… Protec… TOTAL   2349000   13000  2020
 4 Agriculture and related Service occupa… Servic… TOTAL   2349000   94000  2020
 5 Agriculture and related Sales and offi… Sales … TOTAL   2349000   12000  2020
 6 Agriculture and related Sales and offi… Office… TOTAL   2349000   96000  2020
 7 Agriculture and related Natural resour… Farmin… TOTAL   2349000  931000  2020
 8 Agriculture and related Natural resour… Constr… TOTAL   2349000   10000  2020
 9 Agriculture and related Natural resour… Instal… TOTAL   2349000   33000  2020
10 Agriculture and related Production, tr… Produc… TOTAL   2349000   42000  2020
# … with 8,174 more rows, and abbreviated variable names ¹​major_occupation,
#   ²​minor_occupation, ³​race_gender, ⁴​industry_total, ⁵​employ_n
…
